2.3 Example 2 | Feature Engineering and Selection Book Club
…
doParallel::registerDoParallel()
all_models1 <- 
    all_models %>%
    #map over each model and its resamples, use the control parameters, and be noisy
    workflow_map(., 
                 resamples = model_folds, 
                 control = control, 
                 verbose = TRUE)

# save(all_models1, file = "data/all_models1.RData", compress = "xz")

# per model what are the predictions, summmarize over resamples
collect_predictions(all_models1, summarize = TRUE)

## # A tibble: 2,492 × 9
##    wflow_id         .config   preproc model  .row Stroke .pred_N .pred_Y .pred…¹
##    <chr>            <fct>     <chr>   <chr> <int> <fct>    <dbl>   <dbl> <fct>  
##  1 formula_null_mod Preproce… formula null…     1 N        0.495   0.505 Y      
##  2 formula_null_mod Preproce… formula null…     2 N        0.478   0.522 Y      
##  3 formula_null_mod Preproce… formula null…     3 N        0.495   0.505 Y      
##  4 formula_null_mod Preproce… formula null…     4 N        0.475   0.525 Y      
##  5 formula_null_mod Preproce… formula null…     5 N        0.485   0.515 Y      
##  6 formula_null_mod Preproce… formula null…     6 N        0.498   0.502 Y      
##  7 formula_null_mod Preproce… formula null…     7 N        0.488   0.512 Y      
##  8 formula_null_mod Preproce… formula null…     8 N        0.485   0.515 Y      
##  9 formula_null_mod Preproce… formula null…     9 N        0.491   0.509 Y      
## 10 formula_null_mod Preproce… formula null…    10 N        0.482   0.518 Y      
## # … with 2,482 more rows, and abbreviated variable name ¹​.pred_class

# per model what are the outputs in terms of fit (auc_roc) and accuracy 
collect_metrics(all_models1)

## # A tibble: 56 × 9
##    wflow_id         .config    preproc model .metric .esti…¹  mean     n std_err
##    <chr>            <fct>      <chr>   <chr> <chr>   <chr>   <dbl> <int>   <dbl>
##  1 formula_null_mod Preproces… formula null… accura… binary  0.378    50  0.0131
##  2 formula_null_mod Preproces… formula null… roc_auc binary  0.5      50  0     
##  3 CALCVol_lm       Preproces… formula logi… accura… binary  0.388    50  0.0183
##  4 CALCVol_lm       Preproces… formula logi… roc_auc binary  0.457    50  0.0291
##  5 CALCVolProp_lm   Preproces… formula logi… accura… binary  0.441    50  0.0196
##  6 CALCVolProp_lm   Preproces… formula logi… roc_auc binary  0.502    50  0.0260
##  7 MATXVol_lm       Preproces… formula logi… accura… binary  0.346    50  0.0177
##  8 MATXVol_lm       Preproces… formula logi… roc_auc binary  0.380    50  0.0277
##  9 MATXVolProp_lm   Preproces… formula logi… accura… binary  0.415    50  0.0222
## 10 MATXVolProp_lm   Preproces… formula logi… roc_auc binary  0.516    50  0.0285
## # … with 46 more rows, and abbreviated variable name ¹​.estimator
…
# per model, sort by auc_roc
all_models1 %>%
rank_results() %>% 
   filter(.metric == "roc_auc")

## # A tibble: 28 × 9
##    wflow_id              .config .metric  mean std_err     n prepr…¹ model  rank
##    <chr>                 <fct>   <chr>   <dbl>   <dbl> <int> <chr>   <chr> <int>
##  1 MaxRemodelingRatio_lm Prepro… roc_auc 0.682  0.0300    50 formula logi…     1
##  2 MaxMaxWallThickness_… Prepro… roc_auc 0.669  0.0276    50 formula logi…     2
##  3 MaxStenosisByArea_lm  Prepro… roc_auc 0.651  0.0256    50 formula logi…     3
##  4 MaxStenosisByDiamete… Prepro… roc_auc 0.640  0.0281    50 formula logi…     4
##  5 MaxDilationByArea_lm  Prepro… roc_auc 0.625  0.0302    50 formula logi…     5
##  6 MaxLRNCArea_lm        Prepro… roc_auc 0.622  0.0281    50 formula logi…     6
##  7 LRNCVolProp_lm        Prepro… roc_auc 0.598  0.0260    50 formula logi…     7
##  8 MaxMATXArea_lm        Prepro… roc_auc 0.595  0.0298    50 formula logi…     8
##  9 MaxWallArea_lm        Prepro… roc_auc 0.591  0.0300    50 formula logi…     9
## 10 CoronaryArteryDiseas… Prepro… roc_auc 0.574  0.0208    50 formula logi…    10
## # … with 18 more rows, and abbreviated variable name ¹​preprocessor
…
